key,value,help
channel,CH1,string_is_key_for_used_channel
attenuation,-6.,float_is_attenuation_on_channel_in_dB
waveform_query,LIB/oscilloscopes/RhodeSchwarz_general.dat,str_is_file_with_informations_on_how_to_read_the_waveform_data
signal_query,LIB/antennas/Aaronia_omniLOG30800.dat,str_is_file_with_informations_on_how_to_interpret_the_signal
working_dir,"\\srvlab",string_is_workindirectory
output_dir,"C:/Users/mehret/Documents/TMP",string_is_savetodirectory
background,filename,string_is_background
windowing,10,int_is_power_2**M_that_yields_window_of_streaked_frequency_image
GUI,T,string_is_T_or_F
online,T,string_is_T_or_F